<?xml version="1.0" encoding="utf-8"?>
<!-- Generator: Adobe Illustrator 22.1.0, SVG Export Plug-In . SVG Version: 6.00 Build 0)  -->
<svg version="1.1" id="Layer_1" xmlns="http://www.w3.org/2000/svg" xmlns:xlink="http://www.w3.org/1999/xlink" x="0px" y="0px"
	 viewBox="0 0 91.2 101.2" style="enable-background:new 0 0 91.2 101.2;" xml:space="preserve">
<style type="text/css">
	.st0{clip-path:url(#SVGID_2_);}
</style>
<g>
	<defs>
		<rect id="SVGID_1_" y="0" width="91.2" height="101.2"/>
	</defs>
	<clipPath id="SVGID_2_">
		<use xlink:href="#SVGID_1_"  style="overflow:visible;"/>
	</clipPath>
	<path class="st0" d="M45.6,17.7c-15.4,0-27.9,12.5-27.9,27.9c0,6.3,2.1,12.2,6,17.2c0.8,1,1.6,1.9,2.4,2.9l0,0.1
		c2.6,3,5.3,6.2,6.3,9.9c0.2,0.8,0.3,2.5,0.2,3.7v2.1c0,1.9,1.6,3.5,3.5,3.5h18.5c2,0,3.5-1.6,3.5-3.5v-2.2c0-1.6,0.1-2.8,0.2-3.5
		c1-3.7,4-7.2,6.7-10.4l0.1-0.1c0.8-0.9,1.5-1.8,2.2-2.6c3.9-5,6-10.9,6-17.2C73.5,30.2,61,17.7,45.6,17.7 M62,58.4
		c-0.6,0.7-1.3,1.5-2,2.4L59.8,61c-3.1,3.7-6.7,7.8-8.1,13c-0.2,0.7-0.4,1.8-0.5,4H39.8c0-2.2-0.3-3.4-0.5-4.2
		c-1.4-5.3-5-9.4-7.8-12.7l0-0.1c-0.8-0.9-1.6-1.8-2.2-2.7c-2.9-3.7-4.5-8.1-4.5-12.8c0-11.5,9.3-20.8,20.8-20.8
		c11.5,0,20.8,9.3,20.8,20.8C66.4,50.3,64.9,54.7,62,58.4"/>
	<path class="st0" d="M54.8,86.1H36.3c-2,0-3.5,1.6-3.5,3.5c0,1.9,1.6,3.5,3.5,3.5h18.5c2,0,3.5-1.6,3.5-3.5
		C58.3,87.6,56.7,86.1,54.8,86.1"/>
	<path class="st0" d="M50.2,94.1h-9.2c-2,0-3.5,1.6-3.5,3.5c0,1.9,1.6,3.5,3.5,3.5h9.2c1.9,0,3.5-1.6,3.5-3.5
		C53.7,95.7,52.1,94.1,50.2,94.1"/>
	<path class="st0" d="M45.6,12.6c1.9,0,3.5-1.6,3.5-3.5V3.5c0-1.9-1.6-3.5-3.5-3.5c-2,0-3.5,1.6-3.5,3.5v5.5
		C42.1,11,43.7,12.6,45.6,12.6"/>
	<path class="st0" d="M78.6,45.6c0,1.9,1.6,3.5,3.5,3.5h5.5c1.9,0,3.5-1.6,3.5-3.5c0-1.9-1.6-3.5-3.5-3.5h-5.5
		C80.2,42.1,78.6,43.7,78.6,45.6"/>
	<path class="st0" d="M0,45.6c0,1.9,1.6,3.5,3.5,3.5h5.5c1.9,0,3.5-1.6,3.5-3.5c0-1.9-1.6-3.5-3.5-3.5H3.5C1.6,42.1,0,43.7,0,45.6"
		/>
	<path class="st0" d="M69,68.9c-1.4,1.3-1.5,3.6-0.1,5l3.8,4c1.3,1.4,3.6,1.5,5,0.1c1.4-1.3,1.5-3.6,0.1-5L74,69
		C72.7,67.6,70.4,67.5,69,68.9"/>
	<path class="st0" d="M69,22.2c1.4,1.4,3.6,1.4,5,0l3.9-3.9c1.4-1.4,1.4-3.6,0-5c-1.4-1.4-3.6-1.4-5,0l-3.9,3.9
		C67.7,18.6,67.7,20.9,69,22.2"/>
	<path class="st0" d="M22.3,22.3c1.4-1.4,1.4-3.6,0-5l-3.9-3.9c-1.4-1.4-3.6-1.4-5,0s-1.4,3.6,0,5l3.9,3.9
		C18.6,23.6,20.9,23.6,22.3,22.3"/>
	<path class="st0" d="M22.1,68.9c-1.4-1.3-3.6-1.3-5,0.1l-3.8,4c-1.3,1.4-1.3,3.6,0.1,5c1.4,1.3,3.6,1.3,5-0.1l3.8-4
		C23.5,72.5,23.5,70.2,22.1,68.9"/>
</g>
</svg>
