<?xml version="1.0" encoding="utf-8"?>
<!-- Generator: Adobe Illustrator 22.1.0, SVG Export Plug-In . SVG Version: 6.00 Build 0)  -->
<svg version="1.1" id="Layer_1" xmlns="http://www.w3.org/2000/svg" xmlns:xlink="http://www.w3.org/1999/xlink" x="0px" y="0px"
	 viewBox="0 0 78.1 97.4" style="enable-background:new 0 0 78.1 97.4;" xml:space="preserve">
<style type="text/css">
	.st0{clip-path:url(#SVGID_2_);}
</style>
<g>
	<defs>
		<rect id="SVGID_1_" y="0" width="78.1" height="97.4"/>
	</defs>
	<clipPath id="SVGID_2_">
		<use xlink:href="#SVGID_1_"  style="overflow:visible;"/>
	</clipPath>
	<path class="st0" d="M15,97.4c-8.3,0-15-6-15-13.3c0-0.1,0-0.1,0-0.2l5.5-62.2C5.7,20,7,18.7,8.7,18.7h10.9C20,8.4,28.6,0,39.1,0
		c10.4,0,19.1,8.4,19.5,18.7h10.9c1.6,0,3,1.3,3.1,2.9l5.5,62.1c0,0.1,0,0.2,0,0.3c0,7.3-6.7,13.3-15,13.3H15z M6.3,84.2
		C6.4,88,10.3,91,15,91h48.2c4.7,0,8.6-3.1,8.6-6.9l-5.3-59.1h-7.9v7.6c0,1.7-1.4,3.2-3.2,3.2c-1.7,0-3.2-1.4-3.2-3.2v-7.6H25.8v7.6
		c0,1.7-1.4,3.2-3.2,3.2c-1.7,0-3.2-1.4-3.2-3.2v-7.6h-7.9L6.3,84.2z M52.3,18.7C51.8,11.8,46,6.3,39.1,6.3c-7,0-12.8,5.5-13.2,12.4
		H52.3z"/>
	<path class="st0" d="M77.6,83.8l-5.5-62.1c-0.1-1.4-1.3-2.4-2.6-2.4H58.1c-0.2-10.4-8.6-18.7-19-18.7c-10.4,0-18.9,8.4-19,18.7H8.7
		c-1.4,0-2.5,1-2.6,2.4L0.5,83.8c0,0.1,0,0.2,0,0.2C0.5,91.1,7,96.9,15,96.9h48.2c8,0,14.5-5.8,14.5-12.8
		C77.6,84,77.6,83.9,77.6,83.8 M39.1,5.8c7.5,0,13.6,6,13.7,13.4H25.3C25.5,11.8,31.6,5.8,39.1,5.8 M63.2,91.5H15
		c-5,0-9.1-3.3-9.1-7.4l5.3-59.6H20v8.1c0,1.5,1.2,2.7,2.7,2.7c1.5,0,2.7-1.2,2.7-2.7v-8.1h27.5v8.1c0,1.5,1.2,2.7,2.7,2.7
		s2.7-1.2,2.7-2.7v-8.1H67l5.3,59.6C72.2,88.2,68.2,91.5,63.2,91.5"/>
</g>
</svg>
