<?xml version="1.0" encoding="utf-8"?>
<!-- Generator: Adobe Illustrator 22.1.0, SVG Export Plug-In . SVG Version: 6.00 Build 0)  -->
<svg version="1.1" id="Capa_1" xmlns="http://www.w3.org/2000/svg" xmlns:xlink="http://www.w3.org/1999/xlink" x="0px" y="0px"
	 viewBox="124.1 258.8 105.1 103.6" style="enable-background:new 124.1 258.8 105.1 103.6;" xml:space="preserve">
<g>
	<path d="M152.4,348c-1.6,0-3.1-0.5-4.3-1.4c-2.3-1.7-3.4-4.4-2.9-7.2l3.9-22.7c0-0.3,0-0.6-0.3-0.8l-16.5-16.1
		c-2-2-2.7-4.9-1.9-7.6c0.9-2.7,3.2-4.6,5.9-5l22.8-3.3c0.3,0,0.5-0.2,0.7-0.5l10.2-20.6c1.3-2.5,3.8-4.1,6.6-4.1
		c2.8,0,5.4,1.6,6.6,4.1l10.2,20.6c0.1,0.3,0.4,0.4,0.7,0.5l22.8,3.3c2.8,0.4,5.1,2.3,5.9,5c0.9,2.7,0.2,5.6-1.9,7.6l-16.5,16.1
		c-0.2,0.2-0.3,0.5-0.3,0.8l3.9,22.7c0.5,2.8-0.6,5.5-2.9,7.2c-1.3,0.9-2.8,1.4-4.3,1.4c-1.2,0-2.4-0.3-3.4-0.9L177,336.5
		c-0.1-0.1-0.3-0.1-0.4-0.1s-0.3,0-0.4,0.1l-20.4,10.7C154.8,347.7,153.6,348,152.4,348z M176.6,329.9c1.2,0,2.4,0.3,3.4,0.8
		l20.4,10.7c0.1,0.1,0.3,0.1,0.4,0.1c0.2,0,0.4-0.1,0.5-0.2c0.2-0.1,0.4-0.4,0.3-0.9l-3.9-22.7c-0.4-2.4,0.4-4.8,2.1-6.5l16.5-16.1
		c0.3-0.3,0.3-0.7,0.2-0.9s-0.2-0.5-0.7-0.6l-22.8-3.3c-2.4-0.3-4.5-1.9-5.5-4l-10.2-20.6c-0.2-0.4-0.6-0.5-0.8-0.5
		s-0.6,0.1-0.8,0.5l-10.2,20.6c-1.1,2.2-3.1,3.7-5.5,4l-22.8,3.3c-0.5,0.1-0.6,0.4-0.7,0.6s-0.1,0.6,0.2,0.9l16.5,16.1
		c1.7,1.7,2.5,4.1,2.1,6.5l-3.9,22.7c-0.1,0.5,0.2,0.7,0.3,0.9c0.1,0.1,0.3,0.2,0.5,0.2l0,0c0.1,0,0.3,0,0.4-0.1l20.4-10.7
		C174.2,330.2,175.4,329.9,176.6,329.9z"/>
	<path d="M200.8,347.5c-1.1,0-2.2-0.3-3.2-0.8L177.2,336c-0.4-0.2-0.9-0.2-1.3,0l-20.4,10.7c-2.3,1.2-5.1,1-7.2-0.5
		c-2.1-1.5-3.2-4.1-2.7-6.7l3.9-22.7c0.1-0.4-0.1-0.9-0.4-1.2l-16.5-16.1c-1.9-1.8-2.6-4.5-1.7-7s2.9-4.3,5.5-4.7l22.8-3.3
		c0.4-0.1,0.8-0.3,1-0.8l10.2-20.6c1.2-2.4,3.5-3.8,6.2-3.8c2.6,0,5,1.5,6.2,3.8l10.2,20.6c0.2,0.4,0.6,0.7,1,0.8l22.8,3.3
		c2.6,0.4,4.7,2.2,5.5,4.7s0.1,5.2-1.7,7l-16.5,16.1c-0.3,0.3-0.5,0.8-0.4,1.2l3.9,22.7c0.4,2.6-0.6,5.2-2.7,6.7
		C203.6,347.1,202.2,347.5,200.8,347.5z M176.6,330.4c1.1,0,2.2,0.3,3.2,0.8l20.4,10.7c0.7,0.4,1.2,0,1.4-0.1
		c0.2-0.2,0.7-0.6,0.5-1.3l-3.9-22.7c-0.4-2.2,0.4-4.5,2-6.1l16.5-16.1c0.6-0.5,0.4-1.2,0.3-1.4c-0.1-0.2-0.3-0.8-1.1-0.9l-22.8-3.3
		c-2.2-0.3-4.2-1.7-5.2-3.8l-10.2-20.6v0c-0.3-0.7-1-0.8-1.2-0.8c-0.3,0-0.9,0.1-1.2,0.8l-10.2,20.6c-1,2-2.9,3.4-5.2,3.8l-22.8,3.3
		c-0.8,0.1-1,0.7-1.1,0.9c-0.1,0.2-0.2,0.9,0.3,1.4l16.5,16.1c1.6,1.6,2.4,3.8,2,6.1l-3.9,22.7c-0.1,0.8,0.3,1.2,0.5,1.3
		c0.2,0.2,0.8,0.5,1.4,0.1l20.4-10.7C174.4,330.6,175.5,330.4,176.6,330.4z"/>
	<path d="M204.2,272.6c-0.7,0-1.3-0.2-1.9-0.6c-1.4-1.1-1.8-3.1-0.7-4.5l2.9-4c0.6-0.8,1.6-1.3,2.6-1.3c0.7,0,1.3,0.2,1.9,0.6
		c0.7,0.5,1.2,1.3,1.3,2.1c0.1,0.9-0.1,1.7-0.6,2.4l-2.9,4C206.2,272.1,205.2,272.6,204.2,272.6z"/>
	<path d="M204.2,272.1c-0.6,0-1.1-0.2-1.6-0.5c-1.2-0.9-1.5-2.6-0.6-3.8l2.9-4c0.9-1.2,2.6-1.5,3.8-0.6c1.2,0.9,1.5,2.6,0.6,3.8
		l-2.9,4C205.8,271.7,205,272.1,204.2,272.1z"/>
	<path d="M149,272.6c-1,0-2-0.5-2.6-1.3l-2.9-4c-0.5-0.7-0.7-1.6-0.6-2.4c0.1-0.9,0.6-1.6,1.3-2.1c0.6-0.4,1.2-0.6,1.9-0.6
		c1,0,2,0.5,2.6,1.3l2.9,4c1.1,1.4,0.7,3.5-0.7,4.5C150.4,272.4,149.7,272.6,149,272.6z"/>
	<path d="M149,272.1c-0.8,0-1.7-0.4-2.2-1.1l-2.9-4c-0.9-1.2-0.6-2.9,0.6-3.8c1.2-0.9,2.9-0.6,3.8,0.6l2.9,4
		c0.9,1.2,0.6,2.9-0.6,3.8C150.2,271.9,149.6,272.1,149,272.1z"/>
	<path d="M127.3,326.5c-1.4,0-2.7-0.9-3.1-2.2c-0.3-0.8-0.2-1.7,0.2-2.5s1.1-1.3,1.9-1.6l4.7-1.5c0.3-0.1,0.7-0.2,1-0.2
		c1.4,0,2.7,0.9,3.1,2.2c0.6,1.7-0.4,3.5-2.1,4.1l-4.7,1.5C128,326.5,127.6,326.5,127.3,326.5z"/>
	<path d="M127.3,326c-1.2,0-2.2-0.7-2.6-1.9c-0.5-1.4,0.3-3,1.8-3.5l4.7-1.5c1.4-0.5,3,0.3,3.5,1.8c0.5,1.4-0.3,3-1.8,3.5l-4.7,1.5
		C127.9,326,127.6,326,127.3,326z"/>
	<path d="M176.6,362.3c-1.8,0-3.2-1.5-3.2-3.2v-5c0-1.8,1.5-3.2,3.2-3.2s3.2,1.5,3.2,3.2v5C179.9,360.9,178.4,362.3,176.6,362.3z"/>
	<path d="M176.6,361.8c-1.5,0-2.7-1.2-2.7-2.7v-5c0-1.5,1.2-2.7,2.7-2.7s2.7,1.2,2.7,2.7v5C179.4,360.6,178.1,361.8,176.6,361.8z"/>
	<path d="M225.9,326.5c-0.3,0-0.7-0.1-1-0.2l-4.7-1.5c-0.8-0.3-1.5-0.8-1.9-1.6c-0.4-0.8-0.5-1.7-0.2-2.5c0.4-1.3,1.7-2.2,3.1-2.2
		c0.3,0,0.7,0.1,1,0.2l4.7,1.5c1.7,0.6,2.6,2.4,2.1,4.1C228.6,325.6,227.3,326.5,225.9,326.5z"/>
	<path d="M225.9,326c-0.3,0-0.6,0-0.8-0.1l-4.7-1.5c-1.4-0.5-2.2-2-1.8-3.5c0.5-1.4,2-2.2,3.5-1.8l4.7,1.5c1.4,0.5,2.2,2,1.8,3.5
		C228.1,325.3,227.1,326,225.9,326z"/>
</g>
</svg>
